{
  "data": [
    {
      "id": 11,
      "attributes": {
        "slug": "cuphead-2",
        "title": "Cuphead-2",
        "subtitle": "A Challenging and Visually Stunning Ode to Classic Animation",
        "publishedAt": "2023-07-29T19:06:00.485Z",
        "image": {
          "data": {
            "id": 11,
            "attributes": {
              "url": "/uploads/cuphead_14fced8b9a.jpg"
            }
          }
        }
      }
    },
    {
      "id": 26,
      "attributes": {
        "slug": "subnautica-1",
        "title": "Subnautica-1",
        "subtitle": "An Oceanic Masterpiece That Plunges Players into an Immersive Underwater World",
        "publishedAt": "2023-07-29T19:05:19.674Z",
        "image": {
          "data": {
            "id": 17,
            "attributes": {
              "url": "/uploads/subnautica_049e8332de.jpg"
            }
          }
        }
      }
    },
    {
      "id": 8,
      "attributes": {
        "slug": "hades-2018",
        "title": "Hades",
        "subtitle": "A Rogue-Like Gem that Ascends to Greatness",
        "publishedAt": "2023-05-28T11:00:00.000Z",
        "image": {
          "data": {
            "id": 8,
            "attributes": {
              "url": "/uploads/hades_2018_bff8e28a82.jpg"
            }
          }
        }
      }
    },
    {
      "id": 5,
      "attributes": {
        "slug": "fall-guys",
        "title": "Fall Guys: Ultimate Knockout",
        "subtitle": "A Whimsical Party Game for Endless Fun",
        "publishedAt": "2023-05-27T11:00:00.000Z",
        "image": {
          "data": {
            "id": 5,
            "attributes": {
              "url": "/uploads/fall_guys_9f9b386677.jpg"
            }
          }
        }
      }
    },
    {
      "id": 23,
      "attributes": {
        "slug": "black-mesa",
        "title": "Black Mesa",
        "subtitle": "A Masterful Reimagining of a Gaming Classic",
        "publishedAt": "2023-05-26T11:00:00.000Z",
        "image": {
          "data": {
            "id": 23,
            "attributes": {
              "url": "/uploads/black_mesa_f27df07b74.jpg"
            }
          }
        }
      }
    },
    {
      "id": 14,
      "attributes": {
        "slug": "disco-elysium",
        "title": "Disco Elysium",
        "subtitle": "A Mind-Bending Masterpiece of Narrative Brilliance",
        "publishedAt": "2023-05-25T11:00:00.000Z",
        "image": {
          "data": {
            "id": 14,
            "attributes": {
              "url": "/uploads/disco_elysium_897a229c9a.jpg"
            }
          }
        }
      }
    }
  ],
  "meta": {
    "pagination": {
      "page": 1,
      "pageSize": 6,
      "pageCount": 5,
      "total": 26
    }
  }
}